src/verilog_files/tb_demux_generate.vcd
$date
	Mon Nov  1 20:53:30 2021
$end
$version
	Icarus Verilog
$end
$timescale
	1ps
$end
$scope module tb_demux_generate $end
$var wire 1 ! o7 $end
$var wire 1 " o6 $end
$var wire 1 # o5 $end
$var wire 1 $ o4 $end
$var wire 1 % o3 $end
$var wire 1 & o2 $end
$var wire 1 ' o1 $end
$var wire 1 ( o0 $end
$var reg 1 ) clk $end
$var reg 1 * i $end
$var reg 1 + reset $end
$var reg 3 , sel [2:0] $end
$scope module uut $end
$var wire 1 - _13_ $end
$var wire 1 * i $end
$var wire 32 . k [31:0] $end
$var wire 1 ( o0 $end
$var wire 1 ' o1 $end
$var wire 1 & o2 $end
$var wire 1 % o3 $end
$var wire 1 $ o4 $end
$var wire 1 # o5 $end
$var wire 1 " o6 $end
$var wire 1 ! o7 $end
$var wire 3 / sel [2:0] $end
$var wire 8 0 y_int [7:0] $end
$var wire 1 1 _24_ $end
$var wire 1 2 _23_ $end
$var wire 1 3 _22_ $end
$var wire 1 4 _21_ $end
$var wire 1 5 _20_ $end
$var wire 1 6 _19_ $end
$var wire 1 7 _18_ $end
$var wire 1 8 _17_ $end
$var wire 1 9 _16_ $end
$var wire 1 : _15_ $end
$var wire 1 ; _14_ $end
$scope module _25_ $end
$var wire 1 1 A $end
$var wire 1 2 B $end
$var wire 1 3 C $end
$var wire 1 - D $end
$var wire 1 < VGND $end
$var wire 1 = VNB $end
$var wire 1 > VPB $end
$var wire 1 ? VPWR $end
$var wire 1 4 X $end
$scope module base $end
$var wire 1 1 A $end
$var wire 1 2 B $end
$var wire 1 3 C $end
$var wire 1 - D $end
$var wire 1 @ VGND $end
$var wire 1 A VNB $end
$var wire 1 B VPB $end
$var wire 1 C VPWR $end
$var wire 1 4 X $end
$var wire 1 D and0_out_X $end
$upscope $end
$upscope $end
$scope module _26_ $end
$var wire 1 3 A_N $end
$var wire 1 - B $end
$var wire 1 1 C $end
$var wire 1 2 D $end
$var wire 1 E VGND $end
$var wire 1 F VNB $end
$var wire 1 G VPB $end
$var wire 1 H VPWR $end
$var wire 1 5 X $end
$scope module base $end
$var wire 1 3 A_N $end
$var wire 1 - B $end
$var wire 1 1 C $end
$var wire 1 2 D $end
$var wire 1 I VGND $end
$var wire 1 J VNB $end
$var wire 1 K VPB $end
$var wire 1 L VPWR $end
$var wire 1 5 X $end
$var wire 1 M and0_out_X $end
$var wire 1 N not0_out $end
$upscope $end
$upscope $end
$scope module _27_ $end
$var wire 1 2 A_N $end
$var wire 1 3 B $end
$var wire 1 - C $end
$var wire 1 1 D $end
$var wire 1 O VGND $end
$var wire 1 P VNB $end
$var wire 1 Q VPB $end
$var wire 1 R VPWR $end
$var wire 1 6 X $end
$scope module base $end
$var wire 1 2 A_N $end
$var wire 1 3 B $end
$var wire 1 - C $end
$var wire 1 1 D $end
$var wire 1 S VGND $end
$var wire 1 T VNB $end
$var wire 1 U VPB $end
$var wire 1 V VPWR $end
$var wire 1 6 X $end
$var wire 1 W and0_out_X $end
$var wire 1 X not0_out $end
$upscope $end
$upscope $end
$scope module _28_ $end
$var wire 1 1 A $end
$var wire 1 3 B $end
$var wire 1 - C_N $end
$var wire 1 2 D_N $end
$var wire 1 Y VGND $end
$var wire 1 Z VNB $end
$var wire 1 [ VPB $end
$var wire 1 \ VPWR $end
$var wire 1 9 Y $end
$scope module base $end
$var wire 1 1 A $end
$var wire 1 3 B $end
$var wire 1 - C_N $end
$var wire 1 2 D_N $end
$var wire 1 ] VGND $end
$var wire 1 ^ VNB $end
$var wire 1 _ VPB $end
$var wire 1 ` VPWR $end
$var wire 1 9 Y $end
$var wire 1 a and0_out_Y $end
$var wire 1 b nor0_out $end
$upscope $end
$upscope $end
$scope module _29_ $end
$var wire 1 2 A $end
$var wire 1 3 B $end
$var wire 1 - C_N $end
$var wire 1 1 D_N $end
$var wire 1 c VGND $end
$var wire 1 d VNB $end
$var wire 1 e VPB $end
$var wire 1 f VPWR $end
$var wire 1 7 Y $end
$scope module base $end
$var wire 1 2 A $end
$var wire 1 3 B $end
$var wire 1 - C_N $end
$var wire 1 1 D_N $end
$var wire 1 g VGND $end
$var wire 1 h VNB $end
$var wire 1 i VPB $end
$var wire 1 j VPWR $end
$var wire 1 7 Y $end
$var wire 1 k and0_out_Y $end
$var wire 1 l nor0_out $end
$upscope $end
$upscope $end
$scope module _30_ $end
$var wire 1 1 A_N $end
$var wire 1 2 B $end
$var wire 1 3 C $end
$var wire 1 - D $end
$var wire 1 m VGND $end
$var wire 1 n VNB $end
$var wire 1 o VPB $end
$var wire 1 p VPWR $end
$var wire 1 8 X $end
$scope module base $end
$var wire 1 1 A_N $end
$var wire 1 2 B $end
$var wire 1 3 C $end
$var wire 1 - D $end
$var wire 1 q VGND $end
$var wire 1 r VNB $end
$var wire 1 s VPB $end
$var wire 1 t VPWR $end
$var wire 1 8 X $end
$var wire 1 u and0_out_X $end
$var wire 1 v not0_out $end
$upscope $end
$upscope $end
$scope module _31_ $end
$var wire 1 1 A $end
$var wire 1 2 B $end
$var wire 1 3 C_N $end
$var wire 1 - D_N $end
$var wire 1 w VGND $end
$var wire 1 x VNB $end
$var wire 1 y VPB $end
$var wire 1 z VPWR $end
$var wire 1 : Y $end
$scope module base $end
$var wire 1 1 A $end
$var wire 1 2 B $end
$var wire 1 3 C_N $end
$var wire 1 - D_N $end
$var wire 1 { VGND $end
$var wire 1 | VNB $end
$var wire 1 } VPB $end
$var wire 1 ~ VPWR $end
$var wire 1 : Y $end
$var wire 1 !" and0_out_Y $end
$var wire 1 "" nor0_out $end
$upscope $end
$upscope $end
$scope module _32_ $end
$var wire 1 1 A $end
$var wire 1 2 B $end
$var wire 1 3 C $end
$var wire 1 - D_N $end
$var wire 1 #" VGND $end
$var wire 1 $" VNB $end
$var wire 1 %" VPB $end
$var wire 1 &" VPWR $end
$var wire 1 ; Y $end
$scope module base $end
$var wire 1 1 A $end
$var wire 1 2 B $end
$var wire 1 3 C $end
$var wire 1 - D_N $end
$var wire 1 '" VGND $end
$var wire 1 (" VNB $end
$var wire 1 )" VPB $end
$var wire 1 *" VPWR $end
$var wire 1 ; Y $end
$var wire 1 +" nor0_out_Y $end
$var wire 1 ," not0_out $end
$upscope $end
$upscope $end
$upscope $end
$upscope $end
$enddefinitions $end
#0
$dumpvars
1,"
0+"
1*"
1)"
0("
0'"
1&"
1%"
0$"
0#"
x""
0!"
1~
1}
0|
0{
1z
1y
0x
0w
xv
0u
1t
1s
0r
0q
1p
1o
0n
0m
xl
0k
1j
1i
0h
0g
1f
1e
0d
0c
xb
0a
1`
1_
0^
0]
1\
1[
0Z
0Y
xX
0W
1V
1U
0T
0S
1R
1Q
0P
0O
xN
0M
1L
1K
0J
0I
1H
1G
0F
0E
0D
1C
1B
0A
0@
1?
1>
0=
0<
0;
0:
09
08
07
06
05
04
x3
x2
x1
b0 0
bx /
b1000 .
0-
bx ,
0+
0*
0)
0(
0'
0&
0%
0$
0#
0"
0!
$end
#1000
1v
1X
1""
1N
1b
1l
01
02
03
b0 ,
b0 /
1+
#11000
0+
#17000
b1 0
1(
1;
1+"
0,"
1-
1*
#34000
b0 0
0(
0;
0+"
1,"
0-
0*
#51000
b1 0
1(
1;
1+"
0,"
1-
1*
#68000
b0 0
0(
0;
0+"
1,"
0-
0*
#85000
b1 0
1(
1;
1+"
0,"
1-
1*
#102000
b0 0
0(
0;
0+"
1,"
0-
0*
#119000
b1 0
1(
1;
1+"
0,"
1-
1*
#136000
b0 0
0(
0;
0+"
1,"
0-
0*
#153000
b1 0
1(
1;
1+"
0,"
1-
1*
#170000
b0 0
0(
0;
0+"
1,"
0-
0*
#187000
b1 0
1(
1;
1+"
0,"
1-
1*
#204000
b0 0
0(
0;
0+"
1,"
0-
0*
#221000
b1 0
1(
1;
1+"
0,"
1-
1*
#238000
b0 0
0(
0;
0+"
1,"
0-
0*
#255000
b1 0
1(
1;
1+"
0,"
1-
1*
#272000
b0 0
0(
0;
0+"
1,"
0-
0*
#289000
b1 0
1(
1;
1+"
0,"
1-
1*
#300000
1'
1:
b10 0
0(
0;
0N
0b
0l
1!"
0+"
13
b1 ,
b1 /
1)
#306000
b0 0
0'
0:
0!"
1,"
0-
0*
#323000
b10 0
1'
1:
1!"
0,"
1-
1*
#340000
b0 0
0'
0:
0!"
1,"
0-
0*
#357000
b10 0
1'
1:
1!"
0,"
1-
1*
#374000
b0 0
0'
0:
0!"
1,"
0-
0*
#391000
b10 0
1'
1:
1!"
0,"
1-
1*
#408000
b0 0
0'
0:
0!"
1,"
0-
0*
#425000
b10 0
1'
1:
1!"
0,"
1-
1*
#442000
b0 0
0'
0:
0!"
1,"
0-
0*
#459000
b10 0
1'
1:
1!"
0,"
1-
1*
#476000
b0 0
0'
0:
0!"
1,"
0-
0*
#493000
b10 0
1'
1:
1!"
0,"
1-
1*
#510000
b0 0
0'
0:
0!"
1,"
0-
0*
#527000
b10 0
1'
1:
1!"
0,"
1-
1*
#544000
b0 0
0'
0:
0!"
1,"
0-
0*
#561000
b10 0
1'
1:
1!"
0,"
1-
1*
#578000
b0 0
0'
0:
0!"
1,"
0-
0*
#595000
b10 0
1'
1:
1!"
0,"
1-
1*
#600000
0)
#612000
b0 0
0'
0:
0!"
1,"
0-
0*
#629000
b10 0
1'
1:
1!"
0,"
1-
1*
#646000
b0 0
0'
0:
0!"
1,"
0-
0*
#663000
b10 0
1'
1:
1!"
0,"
1-
1*
#680000
b0 0
0'
0:
0!"
1,"
0-
0*
#697000
b10 0
1'
1:
1!"
0,"
1-
1*
#714000
b0 0
0'
0:
0!"
1,"
0-
0*
#731000
b10 0
1'
1:
1!"
0,"
1-
1*
#748000
b0 0
0'
0:
0!"
1,"
0-
0*
#765000
b10 0
1'
1:
1!"
0,"
1-
1*
#782000
b0 0
0'
0:
0!"
1,"
0-
0*
#799000
b10 0
1'
1:
1!"
0,"
1-
1*
#816000
b0 0
0'
0:
0!"
1,"
0-
0*
#833000
b10 0
1'
1:
1!"
0,"
1-
1*
#850000
b0 0
0'
0:
0!"
1,"
0-
0*
#867000
b10 0
1'
1:
1!"
0,"
1-
1*
#884000
b0 0
0'
0:
0!"
1,"
0-
0*
#900000
0X
0""
1N
1b
12
03
b10 ,
b10 /
1)
#901000
b100 0
1&
19
1a
0,"
1-
1*
#918000
b0 0
0&
09
0a
1,"
0-
0*
#935000
b100 0
1&
19
1a
0,"
1-
1*
#952000
b0 0
0&
09
0a
1,"
0-
0*
#969000
b100 0
1&
19
1a
0,"
1-
1*
#986000
b0 0
0&
09
0a
1,"
0-
0*
#1003000
b100 0
1&
19
1a
0,"
1-
1*
#1020000
b0 0
0&
09
0a
1,"
0-
0*
#1037000
b100 0
1&
19
1a
0,"
1-
1*
#1054000
b0 0
0&
09
0a
1,"
0-
0*
#1071000
b100 0
1&
19
1a
0,"
1-
1*
#1088000
b0 0
0&
09
0a
1,"
0-
0*
#1105000
b100 0
1&
19
1a
0,"
1-
1*
#1122000
b0 0
0&
09
0a
1,"
0-
0*
#1139000
b100 0
1&
19
1a
0,"
1-
1*
#1156000
b0 0
0&
09
0a
1,"
0-
0*
#1173000
b100 0
1&
19
1a
0,"
1-
1*
#1190000
b0 0
0&
09
0a
1,"
0-
0*
#1200000
0)
#1207000
b100 0
1&
19
1a
0,"
1-
1*
#1224000
b0 0
0&
09
0a
1,"
0-
0*
#1241000
b100 0
1&
19
1a
0,"
1-
1*
#1258000
b0 0
0&
09
0a
1,"
0-
0*
#1275000
b100 0
1&
19
1a
0,"
1-
1*
#1292000
b0 0
0&
09
0a
1,"
0-
0*
#1309000
b100 0
1&
19
1a
0,"
1-
1*
#1326000
b0 0
0&
09
0a
1,"
0-
0*
#1343000
b100 0
1&
19
1a
0,"
1-
1*
#1360000
b0 0
0&
09
0a
1,"
0-
0*
#1377000
b100 0
1&
19
1a
0,"
1-
1*
#1394000
b0 0
0&
09
0a
1,"
0-
0*
#1411000
b100 0
1&
19
1a
0,"
1-
1*
#1428000
b0 0
0&
09
0a
1,"
0-
0*
#1445000
b100 0
1&
19
1a
0,"
1-
1*
#1462000
b0 0
0&
09
0a
1,"
0-
0*
#1479000
b100 0
1&
19
1a
0,"
1-
1*
#1496000
b0 0
0&
09
0a
1,"
0-
0*
#1500000
0N
0b
13
b11 ,
b11 /
1)
#1513000
b1000 0
1%
18
1u
0,"
1-
1*
#1530000
b0 0
0%
08
0u
1,"
0-
0*
#1547000
b1000 0
1%
18
1u
0,"
1-
1*
#1564000
b0 0
0%
08
0u
1,"
0-
0*
#1581000
b1000 0
1%
18
1u
0,"
1-
1*
#1598000
b0 0
0%
08
0u
1,"
0-
0*
#1615000
b1000 0
1%
18
1u
0,"
1-
1*
#1632000
b0 0
0%
08
0u
1,"
0-
0*
#1649000
b1000 0
1%
18
1u
0,"
1-
1*
#1666000
b0 0
0%
08
0u
1,"
0-
0*
#1683000
b1000 0
1%
18
1u
0,"
1-
1*
#1700000
b0 0
0%
08
0u
1,"
0-
0*
#1717000
b1000 0
1%
18
1u
0,"
1-
1*
#1734000
b0 0
0%
08
0u
1,"
0-
0*
#1751000
b1000 0
1%
18
1u
0,"
1-
1*
#1768000
b0 0
0%
08
0u
1,"
0-
0*
#1785000
b1000 0
1%
18
1u
0,"
1-
1*
#1800000
0)
#1802000
b0 0
0%
08
0u
1,"
0-
0*
#1819000
b1000 0
1%
18
1u
0,"
1-
1*
#1836000
b0 0
0%
08
0u
1,"
0-
0*
#1853000
b1000 0
1%
18
1u
0,"
1-
1*
#1870000
b0 0
0%
08
0u
1,"
0-
0*
#1887000
b1000 0
1%
18
1u
0,"
1-
1*
#1904000
b0 0
0%
08
0u
1,"
0-
0*
#1921000
b1000 0
1%
18
1u
0,"
1-
1*
#1938000
b0 0
0%
08
0u
1,"
0-
0*
#1955000
b1000 0
1%
18
1u
0,"
1-
1*
#1972000
b0 0
0%
08
0u
1,"
0-
0*
#1989000
b1000 0
1%
18
1u
0,"
1-
1*
#2006000
b0 0
0%
08
0u
1,"
0-
0*
#2023000
b1000 0
1%
18
1u
0,"
1-
1*
#2040000
b0 0
0%
08
0u
1,"
0-
0*
#2057000
b1000 0
1%
18
1u
0,"
1-
1*
#2074000
b0 0
0%
08
0u
1,"
0-
0*
#2091000
b1000 0
1%
18
1u
0,"
1-
1*
#2100000
1$
17
b10000 0
0%
08
1k
0v
1X
1N
1l
0u
11
02
03
b100 ,
b100 /
1)
#2108000
b0 0
0$
07
0k
1,"
0-
0*
#2125000
b10000 0
1$
17
1k
0,"
1-
1*
#2142000
b0 0
0$
07
0k
1,"
0-
0*
#2159000
b10000 0
1$
17
1k
0,"
1-
1*
#2176000
b0 0
0$
07
0k
1,"
0-
0*
#2193000
b10000 0
1$
17
1k
0,"
1-
1*
#2210000
b0 0
0$
07
0k
1,"
0-
0*
#2227000
b10000 0
1$
17
1k
0,"
1-
1*
#2244000
b0 0
0$
07
0k
1,"
0-
0*
#2261000
b10000 0
1$
17
1k
0,"
1-
1*
#2278000
b0 0
0$
07
0k
1,"
0-
0*
#2295000
b10000 0
1$
17
1k
0,"
1-
1*
#2312000
b0 0
0$
07
0k
1,"
0-
0*
#2329000
b10000 0
1$
17
1k
0,"
1-
1*
#2346000
b0 0
0$
07
0k
1,"
0-
0*
#2363000
b10000 0
1$
17
1k
0,"
1-
1*
#2380000
b0 0
0$
07
0k
1,"
0-
0*
#2397000
b10000 0
1$
17
1k
0,"
1-
1*
#2400000
0)
#2414000
b0 0
0$
07
0k
1,"
0-
0*
#2431000
b10000 0
1$
17
1k
0,"
1-
1*
#2448000
b0 0
0$
07
0k
1,"
0-
0*
#2465000
b10000 0
1$
17
1k
0,"
1-
1*
#2482000
b0 0
0$
07
0k
1,"
0-
0*
#2499000
b10000 0
1$
17
1k
0,"
1-
1*
#2516000
b0 0
0$
07
0k
1,"
0-
0*
#2533000
b10000 0
1$
17
1k
0,"
1-
1*
#2550000
b0 0
0$
07
0k
1,"
0-
0*
#2567000
b10000 0
1$
17
1k
0,"
1-
1*
#2584000
b0 0
0$
07
0k
1,"
0-
0*
#2601000
b10000 0
1$
17
1k
0,"
1-
1*
#2618000
b0 0
0$
07
0k
1,"
0-
0*
#2635000
b10000 0
1$
17
1k
0,"
1-
1*
#2652000
b0 0
0$
07
0k
1,"
0-
0*
#2669000
b10000 0
1$
17
1k
0,"
1-
1*
#2686000
b0 0
0$
07
0k
1,"
0-
0*
#2700000
0N
0l
13
b101 ,
b101 /
1)
#2703000
b100000 0
1#
16
1W
0,"
1-
1*
#2720000
b0 0
0#
06
0W
1,"
0-
0*
#2737000
b100000 0
1#
16
1W
0,"
1-
1*
#2754000
b0 0
0#
06
0W
1,"
0-
0*
#2771000
b100000 0
1#
16
1W
0,"
1-
1*
#2788000
b0 0
0#
06
0W
1,"
0-
0*
#2805000
b100000 0
1#
16
1W
0,"
1-
1*
#2822000
b0 0
0#
06
0W
1,"
0-
0*
#2839000
b100000 0
1#
16
1W
0,"
1-
1*
#2856000
b0 0
0#
06
0W
1,"
0-
0*
#2873000
b100000 0
1#
16
1W
0,"
1-
1*
#2890000
b0 0
0#
06
0W
1,"
0-
0*
#2907000
b100000 0
1#
16
1W
0,"
1-
1*
#2924000
b0 0
0#
06
0W
1,"
0-
0*
#2941000
b100000 0
1#
16
1W
0,"
1-
1*
#2958000
b0 0
0#
06
0W
1,"
0-
0*
#2975000
b100000 0
1#
16
1W
0,"
1-
1*
#2992000
b0 0
0#
06
0W
1,"
0-
0*
#3000000
0)
#3009000
b100000 0
1#
16
1W
0,"
1-
1*
#3026000
b0 0
0#
06
0W
1,"
0-
0*
#3043000
b100000 0
1#
16
1W
0,"
1-
1*
#3060000
b0 0
0#
06
0W
1,"
0-
0*
#3077000
b100000 0
1#
16
1W
0,"
1-
1*
#3094000
b0 0
0#
06
0W
1,"
0-
0*
#3111000
b100000 0
1#
16
1W
0,"
1-
1*
#3128000
b0 0
0#
06
0W
1,"
0-
0*
#3145000
b100000 0
1#
16
1W
0,"
1-
1*
#3162000
b0 0
0#
06
0W
1,"
0-
0*
#3179000
b100000 0
1#
16
1W
0,"
1-
1*
#3196000
b0 0
0#
06
0W
1,"
0-
0*
#3213000
b100000 0
1#
16
1W
0,"
1-
1*
#3230000
b0 0
0#
06
0W
1,"
0-
0*
#3247000
b100000 0
1#
16
1W
0,"
1-
1*
#3264000
b0 0
0#
06
0W
1,"
0-
0*
#3281000
b100000 0
1#
16
1W
0,"
1-
1*
#3298000
b0 0
0#
06
0W
1,"
0-
0*
#3300000
0X
1N
12
03
b110 ,
b110 /
1)
#3315000
b1000000 0
1"
15
1M
0,"
1-
1*
#3332000
b0 0
0"
05
0M
1,"
0-
0*
#3349000
b1000000 0
1"
15
1M
0,"
1-
1*
#3366000
b0 0
0"
05
0M
1,"
0-
0*
#3383000
b1000000 0
1"
15
1M
0,"
1-
1*
#3400000
b0 0
0"
05
0M
1,"
0-
0*
#3417000
b1000000 0
1"
15
1M
0,"
1-
1*
#3434000
b0 0
0"
05
0M
1,"
0-
0*
#3451000
b1000000 0
1"
15
1M
0,"
1-
1*
#3468000
b0 0
0"
05
0M
1,"
0-
0*
#3485000
b1000000 0
1"
15
1M
0,"
1-
1*
#3502000
b0 0
0"
05
0M
1,"
0-
0*
#3519000
b1000000 0
1"
15
1M
0,"
1-
1*
#3536000
b0 0
0"
05
0M
1,"
0-
0*
#3553000
b1000000 0
1"
15
1M
0,"
1-
1*
#3570000
b0 0
0"
05
0M
1,"
0-
0*
#3587000
b1000000 0
1"
15
1M
0,"
1-
1*
#3600000
0)
#3604000
b0 0
0"
05
0M
1,"
0-
0*
#3621000
b1000000 0
1"
15
1M
0,"
1-
1*
#3638000
b0 0
0"
05
0M
1,"
0-
0*
#3655000
b1000000 0
1"
15
1M
0,"
1-
1*
#3672000
b0 0
0"
05
0M
1,"
0-
0*
#3689000
b1000000 0
1"
15
1M
0,"
1-
1*
#3706000
b0 0
0"
05
0M
1,"
0-
0*
#3723000
b1000000 0
1"
15
1M
0,"
1-
1*
#3740000
b0 0
0"
05
0M
1,"
0-
0*
#3757000
b1000000 0
1"
15
1M
0,"
1-
1*
#3774000
b0 0
0"
05
0M
1,"
0-
0*
#3791000
b1000000 0
1"
15
1M
0,"
1-
1*
#3808000
b0 0
0"
05
0M
1,"
0-
0*
#3825000
b1000000 0
1"
15
1M
0,"
1-
1*
#3842000
b0 0
0"
05
0M
1,"
0-
0*
#3859000
b1000000 0
1"
15
1M
0,"
1-
1*
#3876000
b0 0
0"
05
0M
1,"
0-
0*
#3893000
b1000000 0
1"
15
1M
0,"
1-
1*
#3900000
0"
05
b10000000 0
1!
14
0M
1D
0N
13
b111 ,
b111 /
1)
#3910000
b0 0
0!
04
0D
1,"
0-
0*
